1={2048 }
2={7519 }
3={1948 }
4={7065 }
5={7149 }
6={5035 }
7={9560 }
8={7621 }
9={8187 }
10={5163 }
11={2106 }
12={11001 }
13={2179 }
14={5152 }
15={2149 }
16={8176 }
17={2169 }
18={1648 }
19={11618 }
20={653 }
21={3684 }
22={682 }
23={424 }
24={3583 }
25={3484 }
26={716 }
27={9640 }
28={676 }
29={690 }
30={6761 }
31={11479 }
32={11398 }
33={6661 }
34={11584 }
35={11598 }
36={11735 }
37={9596 }
38={9595 }
39={984 }
40={3623 }
41={1377 }
42={3530 }
43={4273 }
44={12490 }
45={563 }
46={3541 }
47={9572 }
48={6560 }
49={9444 }
50={4064 }
51={2105 }
52={8010 }
53={12041 }
54={5146 }
55={5188 }
56={2174 }
57={5179 }
58={5229 }
59={10973 }
60={5216 }
61={526 }
62={3326 }
63={1208 }
64={10513 }
65={4980 }
66={1979 }
67={12853 }
68={2204 }
69={2175 }
70={1446 }
71={8242 }
72={7476 }
73={10980 }
74={5156 }
75={4604 }
76={10205 }
77={1384 }
78={7448 }
79={4410 }
80={7497 }
81={1330 }
82={1607 }
83={1082 }
84={1324 }
85={7104 }
86={10040 }
87={7200 }
88={1150 }
89={12068 }
90={10062 }
91={1004 }
92={1036 }
93={10076 }
94={7129 }
95={10000 }
96={10367 }
97={7086 }
98={828 }
99={650 }
100={5121 }
101={8218 }
102={7617 }
103={2079 }
104={12790 }
105={7936 }
106={2007 }
107={13083 }
108={3500 }
109={9948 }
110={1302 }
111={1400 }
112={10245 }
113={3341 }
114={317 }
115={3260 }
116={10862 }
117={4155 }
118={5023 }
119={8149 }
120={9940 }
121={3889 }
122={3942 }
123={7184 }
124={4591 }
125={792 }
126={1086 }
127={5099 }
128={7164 }
129={11922 }
130={11967 }
131={1143 }
132={1206 }
133={12816 }
134={1068 }
135={7073 }
136={1914 }
137={2046 }
138={10900 }
139={2016 }
140={5091 }
141={1869 }
142={1262 }
143={1788 }
144={4790 }
145={1712 }
146={3736 }
147={490 }
148={634 }
149={1785 }
150={10254 }
151={4287 }
152={385 }
153={3342 }
154={9284 }
155={6104 }
156={3273 }
157={253 }
158={6318 }
159={9332 }
160={364 }
161={11253 }
162={6221 }
163={3463 }
164={4135 }
165={12003 }
166={1129 }
167={4045 }
168={12035 }
169={12251 }
170={4204 }
171={10090 }
172={10088 }
173={4971 }
174={4950 }
175={4187 }
176={4353 }
177={12247 }
178={7297 }
179={7395 }
180={7391 }
181={4219 }
182={1296 }
183={1014 }
184={7342 }
185={4989 }
186={2038 }
187={4982 }
188={10415 }
189={4822 }
190={1833 }
191={4556 }
192={2165 }
193={13013 }
194={12960 }
195={2077 }
196={4450 }
197={3284 }
198={7471 }
199={2130 }
200={4648 }
201={1773 }
202={1526 }
203={1217 }
204={1565 }
205={4819 }
206={1984 }
207={8036 }
208={2009 }
209={373 }
210={11548 }
211={6545 }
212={6698 }
213={1346 }
214={9578 }
215={6548 }
216={9725 }
217={641 }
218={3495 }
219={3493 }
220={655 }
221={651 }
222={590 }
223={780 }
224={943 }
225={6762 }
226={6962 }
227={3838 }
228={10149 }
229={1013 }
230={12710 }
231={10803 }
232={13017 }
233={177 }
234={9377 }
235={4934 }
236={6488 }
237={976 }
238={4078 }
239={3401 }
240={1949 }
241={4053 }
242={994 }
243={1202 }
244={1172 }
245={4896 }
246={9984 }
247={4641 }
248={3368 }
249={6263 }
250={247 }
251={6513 }
252={12021 }
253={4981 }
254={564 }
255={3397 }
256={11560 }
257={6257 }
258={7430 }
259={4472 }
260={8076 }
261={1106 }
262={1908 }
263={11985 }
264={12493 }
265={7087 }
266={7016 }
267={13025 }
268={1051 }
269={10020 }
270={11847 }
271={10866 }
272={4149 }
273={4367 }
274={5075 }
275={1479 }
276={1493 }
277={1840 }
278={5062 }
279={4488 }
280={1459 }
281={8027 }
282={11828 }
283={7175 }
284={848 }
285={1054 }
286={9427 }
287={1061 }
288={7959 }
289={3355 }
290={1374 }
291={11331 }
292={6946 }
293={6583 }
294={5222 }
295={2200 }
296={1179 }
297={4852 }
298={675 }
299={11276 }
300={482 }
301={1199 }
302={11763 }
303={1756 }
304={10573 }
305={10914 }
306={5061 }
307={10765 }
308={2060 }
309={5015 }
310={8057 }
311={2008 }
312={13089 }
313={1965 }
314={1900 }
315={10832 }
316={4801 }
317={10627 }
318={3978 }
319={3976 }
320={3741 }
321={9809 }
322={7100 }
323={8046 }
324={12087 }
325={1102 }
326={12857 }
327={1412 }
328={1510 }
329={6444 }
330={12768 }
331={4968 }
332={10825 }
333={68 }
334={6496 }
335={6286 }
336={10225 }
337={1209 }
338={1225 }
339={1419 }
340={10175 }
341={1602 }
342={12742 }
343={153 }
344={13084 }
345={10906 }
346={336 }
347={2018 }
348={8164 }
349={2196 }
350={10976 }
351={8182 }
352={5231 }
353={1059 }
354={12763 }
355={10821 }
356={10066 }
357={782 }
358={925 }
359={9752 }
360={2071 }
361={7602 }
362={5098 }
363={7969 }
364={1982 }
365={5089 }
366={10881 }
367={2070 }
368={1888 }
369={8213 }
370={2156 }
371={2226 }
372={2225 }
373={2182 }
374={5131 }
375={6921 }
376={924 }
377={9869 }
378={1273 }
379={12178 }
380={4189 }
381={1751 }
382={12891 }
383={13015 }
384={12958 }
385={2193 }
386={2120 }
387={5164 }
388={2152 }
389={8224 }
390={3340 }
391={3572 }
392={6524 }
393={9575 }
394={6570 }
395={6535 }
396={519 }
397={6464 }
398={3514 }
399={11386 }
400={389 }
401={395 }
402={1135 }
403={197 }
404={6150 }
405={496 }
406={3194 }
407={3272 }
408={577 }
409={3544 }
410={9546 }
411={331 }
412={3256 }
413={6387 }
414={9247 }
415={488 }
416={513 }
417={6724 }
418={574 }
419={3767 }
420={510 }
421={509 }
422={3065 }
423={134 }
424={6538 }
425={11095 }
426={6122 }
427={149 }
428={6095 }
429={269 }
430={3364 }
431={3214 }
432={340 }
433={1336 }
434={273 }
435={487 }
436={6768 }
437={3682 }
438={1292 }
439={1779 }
440={10626 }
441={4817 }
442={6085 }
443={1679 }
444={1722 }
445={10641 }
446={1863 }
447={1735 }
448={1730 }
449={6669 }
450={6642 }
451={1610 }
452={10140 }
453={7298 }
454={1668 }
455={13063 }
456={2972 }
457={12683 }
458={4743 }
459={6211 }
460={778 }
461={3959 }
462={11730 }
463={11824 }
464={3535 }
465={3609 }
466={1394 }
467={1253 }
468={1244 }
469={10195 }
470={10134 }
471={1291 }
472={883 }
473={3901 }
474={12047 }
475={4435 }
476={10108 }
477={1891 }
478={1992 }
479={4889 }
480={8021 }
481={11194 }
482={11692 }
483={726 }
484={9925 }
485={3953 }
486={3737 }
487={9793 }
488={6856 }
489={1178 }
490={1176 }
491={1372 }
492={1340 }
493={12217 }
494={12100 }
495={1903 }
496={13071 }
497={10498 }
498={1440 }
499={12103 }
500={3034 }
501={53 }
502={9103 }
503={3054 }
504={6028 }
505={6258 }
506={658 }
507={9620 }
508={805 }
509={1116 }
510={1238 }
511={7066 }
512={4962 }
513={5106 }
514={1046 }
515={11597 }
516={11872 }
517={6970 }
518={937 }
519={10163 }
520={6886 }
521={949 }
522={649 }
523={841 }
524={9916 }
525={6895 }
526={6550 }
527={9875 }
528={7193 }
529={3983 }
530={6992 }
531={940 }
532={3807 }
533={960 }
534={904 }
535={789 }
536={864 }
537={901 }
538={3916 }
539={4951 }
540={8085 }
541={1149 }
542={1186 }
543={1060 }
544={910 }
545={10886 }
546={8017 }
547={2075 }
548={13087 }
549={10502 }
550={10602 }
551={12633 }
552={4741 }
553={4759 }
554={7862 }
555={4830 }
556={1753 }
557={4507 }
558={4625 }
559={12463 }
560={1678 }
561={9880 }
562={4738 }
563={720 }
564={9810 }
565={9684 }
566={6855 }
567={4402 }
568={7791 }
569={10753 }
570={4756 }
571={12752 }
572={9996 }
573={11783 }
574={788 }
575={4627 }
576={6929 }
577={3957 }
578={6885 }
579={3863 }
580={9754 }
581={715 }
582={12221 }
583={7968 }
584={4526 }
585={10879 }
586={674 }
587={9497 }
588={3690 }
589={531 }
590={7940 }
591={1458 }
592={1257 }
593={2074 }
594={2029 }
595={4559 }
596={1612 }
597={1367 }
598={1999 }
599={1468 }
600={3606 }
601={2407 }
602={1411 }
603={6754 }
604={736 }
605={4218 }
606={7386 }
607={1414 }
608={1832 }
609={1738 }
610={11802 }
611={13031 }
612={13022 }
613={697 }
614={7264 }
615={855 }
616={1515 }
617={1223 }
618={4250 }
619={7641 }
620={1593 }
621={10240 }
622={4335 }
623={10219 }
624={10206 }
625={1095 }
626={1901 }
627={8069 }
628={1994 }
629={7979 }
630={7992 }
631={8035 }
632={8015 }
633={2100 }
634={10829 }
635={4927 }
636={2044 }
637={1115 }
638={1975 }
639={8028 }
640={10917 }
641={1883 }
642={1473 }
643={4902 }
644={1960 }
645={8103 }
646={10859 }
647={8019 }
648={4995 }
649={5065 }
650={4985 }
651={4957 }
652={2094 }
653={5013 }
654={5070 }
655={7950 }
656={8039 }
657={12843 }
658={10919 }
659={2050 }
660={4952 }
661={8034 }
662={4997 }
663={5036 }
664={7963 }
665={3165 }
666={5139 }
667={3109 }
668={5117 }
669={1731 }
670={1968 }
671={2073 }
672={988 }
673={2115 }
674={7548 }
675={8138 }
676={10594 }
677={12929 }
678={10962 }
679={5160 }
680={5196 }
681={2220 }
682={8201 }
683={5155 }
684={2159 }
685={4851 }
686={1580 }
687={4879 }
688={2207 }
689={4528 }
690={1509 }
691={13072 }
692={10995 }
693={13002 }
694={1280 }
695={7290 }
696={1570 }
697={7623 }
698={2133 }
699={2223 }
700={4748 }
701={2203 }
702={13047 }
703={13026 }
704={7390 }
705={13056 }
706={7855 }
707={4669 }
708={4006 }
709={11607 }
710={1819 }
711={2877 }
712={2900 }
713={13064 }
714={5264 }
