
state={
	id=12
	name="STATE_12"
	resources={
		aluminium=2.000
		steel=2.000
		tungsten=8.000
	}

	history={
		owner = ARG
		victory_points = {
			11001 3 
		}
		buildings = {
			infrastructure = 3
			industrial_complex = 0
			arms_factory = 0
			air_base = 0

		}
		add_core_of = ARG
		add_core_of = BOL
	}

	provinces={
		2224 10944 10965 11001 
	}
	manpower=32400
	buildings_max_level_factor=1.000
	state_category=rural
}
