
state={
	id=148
	name="STATE_148"

	history={
		owner = ENG
		victory_points = {
			1424 1 
		}
		buildings = {
			infrastructure = 3
			industrial_complex = 0
			arms_factory = 0
			7361 = {
				naval_base = 2
			}
			air_base = 0

		}
		add_core_of = CAN
	}

	provinces={
		634 1354 1424 4285 4342 4360 4362 4430 4432 4623 7304 7361 7379 7644 10244 12289 
	}
	manpower=327872
	buildings_max_level_factor=1.000
	state_category=rural
}
