
state={
	id=19
	name="STATE_19"
	resources={
		aluminium=1.000
		steel=2.000
		tungsten=2.000
	}

	history={
		owner = AUS
		victory_points = {
			673 3 
		}
		buildings = {
			infrastructure = 3
			industrial_complex = 0
			arms_factory = 0
			air_base = 0

		}
		add_core_of = AUS
	}

	provinces={
		671 673 688 3675 6678 6680 9633 9636 11618 11634 
	}
	manpower=559300
	buildings_max_level_factor=1.000
	state_category=pastoral
}
