
state={
	id=20
	name="STATE_20"
	resources={
		aluminium=0.000
		oil=1.000
		steel=7.000
		tungsten=8.000
	}

	history={
		owner = AUS
		victory_points = {
			9648 3 
		}
		buildings = {
			infrastructure = 3
			industrial_complex = 0
			arms_factory = 0
			air_base = 0

		}
		add_core_of = AUS
	}

	provinces={
		653 668 3673 3674 6673 6687 6691 9646 9648 9650 9679 11612 
	}
	manpower=736800
	buildings_max_level_factor=1.000
	state_category=pastoral
}
