
state={
	id=263
	name="STATE_263"

	history={
		owner = JAP
		victory_points = {
			10052 3 
		}
		buildings = {
			infrastructure = 3
			industrial_complex = 1
			arms_factory = 0
			air_base = 0

		}
		add_core_of = JAP
	}

	provinces={
		1092 1167 1191 4094 4179 4197 7046 7050 7145 7197 7212 9965 9968 10052 10055 11946 11985 11997 12028 
	}
	manpower=3606596
	buildings_max_level_factor=1.000
	state_category=city
}
