
state={
	id=322
	name="STATE_322"

	history={
		owner = MOR
		victory_points = {
			11987 8 
		}
		buildings = {
			infrastructure = 3
			industrial_complex = 1
			arms_factory = 0
			air_base = 5

		}
		add_core_of = MOR
	}

	provinces={
		1079 1194 4084 7100 10013 10070 11987 12042 
	}
	manpower=548200
	buildings_max_level_factor=1.000
	state_category=rural
}
