
state={
	id=408
	name="STATE_408"

	history={
		owner = SOV
		victory_points = {
			3707 3 
		}
		buildings = {
			infrastructure = 3
			industrial_complex = 0
			arms_factory = 0
			air_base = 0

		}
		add_core_of = MOL
		add_core_of = ROM
		add_core_of = SOV
	}

	provinces={
		414 565 577 3407 3577 3701 3704 3707 3724 6600 6727 6743 9683 11686 11705 
	}
	manpower=988400
	buildings_max_level_factor=1.000
	state_category=rural
}
