
state={
	id=50
	name="STATE_50"
	resources={
		aluminium=4.000
		oil=2.000
	}

	history={
		owner = X07
		victory_points = {
			11952 8 
		}
		buildings = {
			infrastructure = 3
			industrial_complex = 2
			arms_factory = 0
			air_base = 5

		}
		add_core_of = RAJ
		add_core_of = X07
	}

	provinces={
		1103 1144 4064 4090 4132 7207 10118 11952 12037 
	}
	manpower=5436800
	buildings_max_level_factor=1.000
	state_category=metropolis
}
