
state={
	id=542
	name="STATE_542"
	resources={
		steel=1.000
	}

	history={
		owner = TUR
		victory_points = {
			1130 3 
		}
		buildings = {
			infrastructure = 3
			industrial_complex = 0
			arms_factory = 0
			air_base = 0

		}
		add_core_of = TUR
	}

	provinces={
		1041 1062 1118 1127 1130 1186 1198 1204 4047 4057 4060 4063 4120 4136 4151 4194 7063 7082 7139 7206 7209 9980 9992 10046 10049 10117 10120 10123 11954 12025 12079 12088 12094 13078 
	}
	manpower=427740
	buildings_max_level_factor=1.000
	state_category=rural
}
