
state={
	id=569
	name="STATE_569"

	history={
		owner = USA
		victory_points = {
			4464 3 
		}
		buildings = {
			infrastructure = 3
			industrial_complex = 0
			arms_factory = 0
			air_base = 0

		}
		add_core_of = USA
	}

	provinces={
		1615 4464 4510 4565 4650 7464 7668 8110 10410 10449 10753 11717 12328 12429 
	}
	manpower=340800
	buildings_max_level_factor=1.000
	state_category=rural
}
